DM-Project-Marechal-Volaris
…
Now that we have a joined dataset, we can drop redundant variables.

clean_merged <- clean_merged |>
  select(-`Province/State`,
         -`Admin 2 Level (City/County/Borough/Region)`,
         -`State Name`,
         -`Complete County Name`,
         -`Percentage of Population Age 65 and Over`,
         -`Designation Population in a Medically Underserved Area/Population (MUA/P)`,
         `Medically Underserved Area/Population (MUA/P) Total Resident Civilian Population`,
         )

print(clean_merged)

# A tibble: 3,359 × 66
    fips state   name         age_over_18_2019 age_over_65_2019 age_over_85_2019
   <dbl> <chr>   <chr>                   <dbl>            <dbl>            <dbl>
 1  1001 Alabama Autauga Cou…             76.2             15                1.6
 2  1003 Alabama Baldwin Cou…             78.3             20                1.9
 3  1005 Alabama Barbour Cou…             79.1             18.6              1.6
 4  1007 Alabama Bibb County              79.4             15.9              2  
 5  1009 Alabama Blount Coun…             76.8             17.9              1.8
 6  1011 Alabama Bullock Cou…             79.2             16                1.7
 7  1013 Alabama Butler Coun…             77.5             19.7              2.6
 8  1015 Alabama Calhoun Cou…             78.2             17.2              1.8
 9  1017 Alabama Chambers Co…             79               19.2              1.9
10  1019 Alabama Cherokee Co…             79.8             22.4              2  
# ℹ 3,349 more rows
# ℹ 60 more variables: age_under_5_2019 <dbl>, asian_2019 <dbl>,
#   avg_family_size_2019 <dbl>, bachelors_2019 <dbl>, black_2019 <dbl>,
#   hispanic_2019 <dbl>, household_has_broadband_2019 <dbl>,
#   household_has_computer_2019 <dbl>, household_has_smartphone_2019 <dbl>,
#   households_2019 <dbl>, households_speak_asian_or_pac_isl_2019 <dbl>,
#   households_speak_limited_english_2019 <dbl>, …
…
